[
  {
    "id": 1000,
    "name": "Movie 0",
    "transName": "Phim 0",
    "producer": "CENTREXIN.co",
    "pictureLink": "https://vuviphimmoi.com/wp-content/uploads/2017/11/Pico-cua-toi-Boku-No-Pico-Poster-185x278.jpg",
    "tags": [
      "aliqua",
      "cupidatat",
      "qui",
      "sint",
      "duis",
      "proident",
      "voluptate"
    ],
    "description": "Deserunt eu excepteur aute voluptate. Minim proident exercitation enim in eiusmod mollit consectetur enim ut qui non Lorem adipisicing. Culpa quis laboris magna irure excepteur fugiat tempor minim ea labore irure voluptate. Cupidatat fugiat officia mollit sint laborum duis reprehenderit proident sint. Ipsum eiusmod quis anim laboris duis. Deserunt nisi fugiat laborum elit. Ipsum tempor culpa excepteur irure ad nulla est reprehenderit velit enim excepteur esse.\r\n",
    "seasons": [
      {
        "name": "season 0: excepteur",
        "releaseDate": "2019-05-17",
        "numberOfEpisode": 18,
        "isCompleted": 1,
        "link": "https://anime47.com/phim/anime-vietsub-online-night-head-genesis-mediafire/tieng-viet/date-a-live-koga/m2962.html"
      },
      {
        "name": "season 1: sunt",
        "releaseDate": "2018-01-31",
        "numberOfEpisode": 18,
        "isCompleted": 0,
        "link": "https://anime47.com/phim/anime-vietsub-online-night-head-genesis-mediafire/tieng-viet/date-a-live-koga/m2962.html"
      },
      {
        "name": "season 2: deserunt",
        "releaseDate": "2018-04-24",
        "numberOfEpisode": 24,
        "isCompleted": 1,
        "link": "https://anime47.com/phim/anime-vietsub-online-night-head-genesis-mediafire/tieng-viet/date-a-live-koga/m2962.html"
      },
      {
        "name": "season 3: et",
        "releaseDate": "2020-03-02",
        "numberOfEpisode": 17,
        "isCompleted": 1,
        "link": "https://anime47.com/phim/anime-vietsub-online-night-head-genesis-mediafire/tieng-viet/date-a-live-koga/m2962.html"
      },
      {
        "name": "season 4: duis",
        "releaseDate": "2020-01-07",
        "numberOfEpisode": 10,
        "isCompleted": 1,
        "link": "https://anime47.com/phim/anime-vietsub-online-night-head-genesis-mediafire/tieng-viet/date-a-live-koga/m2962.html"
      }
    ],
    "compatibleScore": 22.93,
    "favouriteCount": 170,
    "rank": 631
  },
  {
    "id": 1001,
    "name": "Movie 1",
    "transName": "Phim 1",
    "producer": "ECRATIC.co",
    "pictureLink": "https://vuviphimmoi.com/wp-content/uploads/2017/11/Pico-cua-toi-Boku-No-Pico-Poster-185x278.jpg",
    "tags": [
      "aliquip",
      "dolor",
      "labore",
      "aliquip",
      "minim",
      "sunt"
    ],
    "description": "Exercitation sint est ut aute ea ut dolore est. Tempor nisi duis in ea exercitation officia nostrud nulla laborum do ut fugiat labore eu. Ad ex magna quis do Lorem exercitation adipisicing culpa duis excepteur enim. Lorem aliqua minim sunt sunt ullamco sint et. Incididunt duis elit commodo irure duis do eiusmod dolore nulla aliquip proident minim.\r\n",
    "seasons": [
      {
        "name": "season 0: qui",
        "releaseDate": "2019-05-25",
        "numberOfEpisode": 14,
        "isCompleted": 0,
        "link": "https://anime47.com/phim/anime-vietsub-online-night-head-genesis-mediafire/tieng-viet/date-a-live-koga/m2962.html"
      },
      {
        "name": "season 1: in",
        "releaseDate": "2020-05-25",
        "numberOfEpisode": 16,
        "isCompleted": 1,
        "link": "https://anime47.com/phim/anime-vietsub-online-night-head-genesis-mediafire/tieng-viet/date-a-live-koga/m2962.html"
      },
      {
        "name": "season 2: cillum",
        "releaseDate": "2018-05-24",
        "numberOfEpisode": 23,
        "isCompleted": 1,
        "link": "https://anime47.com/phim/anime-vietsub-online-night-head-genesis-mediafire/tieng-viet/date-a-live-koga/m2962.html"
      },
      {
        "name": "season 3: velit",
        "releaseDate": "2019-09-26",
        "numberOfEpisode": 10,
        "isCompleted": 1,
        "link": "https://anime47.com/phim/anime-vietsub-online-night-head-genesis-mediafire/tieng-viet/date-a-live-koga/m2962.html"
      },
      {
        "name": "season 4: ex",
        "releaseDate": "2020-02-08",
        "numberOfEpisode": 21,
        "isCompleted": 0,
        "link": "https://anime47.com/phim/anime-vietsub-online-night-head-genesis-mediafire/tieng-viet/date-a-live-koga/m2962.html"
      }
    ],
    "compatibleScore": 57.21,
    "favouriteCount": 471,
    "rank": 911
  },
  {
    "id": 1002,
    "name": "Movie 2",
    "transName": "Phim 2",
    "producer": "KENEGY.co",
    "pictureLink": "https://vuviphimmoi.com/wp-content/uploads/2017/11/Pico-cua-toi-Boku-No-Pico-Poster-185x278.jpg",
    "tags": [
      "nostrud",
      "minim",
      "consequat",
      "laborum",
      "ullamco",
      "eiusmod",
      "qui",
      "non"
    ],
    "description": "Deserunt dolor ipsum quis do id et nisi nostrud deserunt cillum cillum. Officia nisi anim incididunt irure sit velit consectetur excepteur. Labore quis irure veniam excepteur cupidatat dolore. Culpa cillum esse qui ex adipisicing labore sunt. Ex eiusmod qui quis esse sit proident non cillum elit. Nisi sunt exercitation esse aliquip laboris est voluptate non proident incididunt fugiat sint cillum.\r\n",
    "seasons": [
      {
        "name": "season 0: cupidatat",
        "releaseDate": "2019-12-17",
        "numberOfEpisode": 18,
        "isCompleted": 0,
        "link": "https://anime47.com/phim/anime-vietsub-online-night-head-genesis-mediafire/tieng-viet/date-a-live-koga/m2962.html"
      },
      {
        "name": "season 1: laborum",
        "releaseDate": "2018-07-08",
        "numberOfEpisode": 13,
        "isCompleted": 0,
        "link": "https://anime47.com/phim/anime-vietsub-online-night-head-genesis-mediafire/tieng-viet/date-a-live-koga/m2962.html"
      },
      {
        "name": "season 2: aute",
        "releaseDate": "2018-12-13",
        "numberOfEpisode": 21,
        "isCompleted": 0,
        "link": "https://anime47.com/phim/anime-vietsub-online-night-head-genesis-mediafire/tieng-viet/date-a-live-koga/m2962.html"
      }
    ],
    "compatibleScore": 55.16,
    "favouriteCount": 895,
    "rank": 588
  },
  {
    "id": 1003,
    "name": "Movie 3",
    "transName": "Phim 3",
    "producer": "ENERFORCE.co",
    "pictureLink": "https://vuviphimmoi.com/wp-content/uploads/2017/11/Pico-cua-toi-Boku-No-Pico-Poster-185x278.jpg",
    "tags": [
      "ullamco",
      "aliqua",
      "incididunt",
      "anim",
      "ipsum"
    ],
    "description": "Elit ea labore quis elit amet magna voluptate aute velit et minim. Duis elit ullamco consequat quis minim sint nisi enim officia consequat cillum cupidatat. Aliquip ad tempor minim cupidatat reprehenderit occaecat ex cillum exercitation. Esse nulla quis pariatur commodo officia esse Lorem esse enim sit duis consequat reprehenderit. Exercitation et minim nisi quis sint.\r\n",
    "seasons": [
      {
        "name": "season 0: mollit",
        "releaseDate": "2018-10-11",
        "numberOfEpisode": 13,
        "isCompleted": 1,
        "link": "https://anime47.com/phim/anime-vietsub-online-night-head-genesis-mediafire/tieng-viet/date-a-live-koga/m2962.html"
      },
      {
        "name": "season 1: laboris",
        "releaseDate": "2019-05-30",
        "numberOfEpisode": 23,
        "isCompleted": 1,
        "link": "https://anime47.com/phim/anime-vietsub-online-night-head-genesis-mediafire/tieng-viet/date-a-live-koga/m2962.html"
      },
      {
        "name": "season 2: ad",
        "releaseDate": "2018-03-10",
        "numberOfEpisode": 23,
        "isCompleted": 0,
        "link": "https://anime47.com/phim/anime-vietsub-online-night-head-genesis-mediafire/tieng-viet/date-a-live-koga/m2962.html"
      }
    ],
    "compatibleScore": 19.6,
    "favouriteCount": 320,
    "rank": 464
  },
  {
    "id": 1004,
    "name": "Movie 4",
    "transName": "Phim 4",
    "producer": "ACCUFARM.co",
    "pictureLink": "https://vuviphimmoi.com/wp-content/uploads/2017/11/Pico-cua-toi-Boku-No-Pico-Poster-185x278.jpg",
    "tags": [
      "nulla",
      "ipsum",
      "id",
      "aliqua",
      "aliqua",
      "cupidatat",
      "exercitation"
    ],
    "description": "Nostrud voluptate non tempor duis cupidatat exercitation non mollit irure Lorem. Irure mollit cillum velit veniam amet officia eu non. Qui id tempor incididunt anim mollit adipisicing commodo dolor. Sit esse in nostrud nulla nisi labore nulla cupidatat velit incididunt fugiat dolore excepteur laboris.\r\n",
    "seasons": [
      {
        "name": "season 0: reprehenderit",
        "releaseDate": "2019-10-25",
        "numberOfEpisode": 24,
        "isCompleted": 0,
        "link": "https://anime47.com/phim/anime-vietsub-online-night-head-genesis-mediafire/tieng-viet/date-a-live-koga/m2962.html"
      },
      {
        "name": "season 1: non",
        "releaseDate": "2019-10-18",
        "numberOfEpisode": 14,
        "isCompleted": 0,
        "link": "https://anime47.com/phim/anime-vietsub-online-night-head-genesis-mediafire/tieng-viet/date-a-live-koga/m2962.html"
      },
      {
        "name": "season 2: sint",
        "releaseDate": "2018-06-03",
        "numberOfEpisode": 8,
        "isCompleted": 1,
        "link": "https://anime47.com/phim/anime-vietsub-online-night-head-genesis-mediafire/tieng-viet/date-a-live-koga/m2962.html"
      }
    ],
    "compatibleScore": 79.57,
    "favouriteCount": 53,
    "rank": 834
  },
  {
    "id": 1005,
    "name": "Movie 5",
    "transName": "Phim 5",
    "producer": "EPLODE.co",
    "pictureLink": "https://vuviphimmoi.com/wp-content/uploads/2017/11/Pico-cua-toi-Boku-No-Pico-Poster-185x278.jpg",
    "tags": [
      "enim",
      "pariatur",
      "qui",
      "labore",
      "commodo",
      "proident",
      "nisi",
      "sit"
    ],
    "description": "Id ut exercitation non ullamco commodo culpa ad amet sunt commodo. Cillum amet elit sint id nostrud amet ut esse dolor dolor officia qui aute. Magna culpa qui laborum anim aliquip.\r\n",
    "seasons": [
      {
        "name": "season 0: ullamco",
        "releaseDate": "2019-10-18",
        "numberOfEpisode": 13,
        "isCompleted": 1,
        "link": "https://anime47.com/phim/anime-vietsub-online-night-head-genesis-mediafire/tieng-viet/date-a-live-koga/m2962.html"
      },
      {
        "name": "season 1: magna",
        "releaseDate": "2020-01-12",
        "numberOfEpisode": 22,
        "isCompleted": 0,
        "link": "https://anime47.com/phim/anime-vietsub-online-night-head-genesis-mediafire/tieng-viet/date-a-live-koga/m2962.html"
      },
      {
        "name": "season 2: aliqua",
        "releaseDate": "2018-09-06",
        "numberOfEpisode": 18,
        "isCompleted": 0,
        "link": "https://anime47.com/phim/anime-vietsub-online-night-head-genesis-mediafire/tieng-viet/date-a-live-koga/m2962.html"
      },
      {
        "name": "season 3: velit",
        "releaseDate": "2018-07-13",
        "numberOfEpisode": 19,
        "isCompleted": 0,
        "link": "https://anime47.com/phim/anime-vietsub-online-night-head-genesis-mediafire/tieng-viet/date-a-live-koga/m2962.html"
      }
    ],
    "compatibleScore": 8.15,
    "favouriteCount": 529,
    "rank": 60
  },
  {
    "id": 1006,
    "name": "Movie 6",
    "transName": "Phim 6",
    "producer": "MAGNEMO.co",
    "pictureLink": "https://vuviphimmoi.com/wp-content/uploads/2017/11/Pico-cua-toi-Boku-No-Pico-Poster-185x278.jpg",
    "tags": [
      "consequat",
      "consequat",
      "officia",
      "exercitation",
      "tempor",
      "occaecat",
      "labore"
    ],
    "description": "Fugiat cillum exercitation adipisicing eiusmod officia aliqua nostrud consequat eu amet. Ut duis magna mollit laboris sunt ea. Ea nostrud ea eu et sit duis magna sint sunt. Tempor consectetur ullamco et laboris labore tempor aliqua consequat anim.\r\n",
    "seasons": [
      {
        "name": "season 0: culpa",
        "releaseDate": "2020-01-08",
        "numberOfEpisode": 19,
        "isCompleted": 1,
        "link": "https://anime47.com/phim/anime-vietsub-online-night-head-genesis-mediafire/tieng-viet/date-a-live-koga/m2962.html"
      },
      {
        "name": "season 1: nisi",
        "releaseDate": "2019-12-30",
        "numberOfEpisode": 14,
        "isCompleted": 0,
        "link": "https://anime47.com/phim/anime-vietsub-online-night-head-genesis-mediafire/tieng-viet/date-a-live-koga/m2962.html"
      },
      {
        "name": "season 2: ex",
        "releaseDate": "2018-08-25",
        "numberOfEpisode": 22,
        "isCompleted": 0,
        "link": "https://anime47.com/phim/anime-vietsub-online-night-head-genesis-mediafire/tieng-viet/date-a-live-koga/m2962.html"
      },
      {
        "name": "season 3: qui",
        "releaseDate": "2018-04-30",
        "numberOfEpisode": 23,
        "isCompleted": 1,
        "link": "https://anime47.com/phim/anime-vietsub-online-night-head-genesis-mediafire/tieng-viet/date-a-live-koga/m2962.html"
      },
      {
        "name": "season 4: duis",
        "releaseDate": "2020-05-08",
        "numberOfEpisode": 14,
        "isCompleted": 1,
        "link": "https://anime47.com/phim/anime-vietsub-online-night-head-genesis-mediafire/tieng-viet/date-a-live-koga/m2962.html"
      }
    ],
    "compatibleScore": 96.75,
    "favouriteCount": 459,
    "rank": 105
  },
  {
    "id": 1007,
    "name": "Movie 7",
    "transName": "Phim 7",
    "producer": "TETRATREX.co",
    "pictureLink": "https://vuviphimmoi.com/wp-content/uploads/2017/11/Pico-cua-toi-Boku-No-Pico-Poster-185x278.jpg",
    "tags": [
      "laboris",
      "veniam",
      "id",
      "dolore",
      "est",
      "ea"
    ],
    "description": "Lorem qui quis eu nostrud velit consequat. Laborum aliqua anim in veniam qui adipisicing eiusmod irure. Mollit duis tempor laboris reprehenderit Lorem culpa et magna est excepteur consectetur commodo incididunt cupidatat. Eu incididunt Lorem mollit consequat.\r\n",
    "seasons": [
      {
        "name": "season 0: quis",
        "releaseDate": "2018-05-03",
        "numberOfEpisode": 13,
        "isCompleted": 1,
        "link": "https://anime47.com/phim/anime-vietsub-online-night-head-genesis-mediafire/tieng-viet/date-a-live-koga/m2962.html"
      },
      {
        "name": "season 1: ex",
        "releaseDate": "2019-10-08",
        "numberOfEpisode": 16,
        "isCompleted": 1,
        "link": "https://anime47.com/phim/anime-vietsub-online-night-head-genesis-mediafire/tieng-viet/date-a-live-koga/m2962.html"
      },
      {
        "name": "season 2: cillum",
        "releaseDate": "2019-04-19",
        "numberOfEpisode": 11,
        "isCompleted": 1,
        "link": "https://anime47.com/phim/anime-vietsub-online-night-head-genesis-mediafire/tieng-viet/date-a-live-koga/m2962.html"
      }
    ],
    "compatibleScore": 36.99,
    "favouriteCount": 991,
    "rank": 411
  },
  {
    "id": 1008,
    "name": "Movie 8",
    "transName": "Phim 8",
    "producer": "AUTOGRATE.co",
    "pictureLink": "https://vuviphimmoi.com/wp-content/uploads/2017/11/Pico-cua-toi-Boku-No-Pico-Poster-185x278.jpg",
    "tags": [
      "mollit",
      "in",
      "irure",
      "culpa",
      "nostrud",
      "veniam"
    ],
    "description": "Aliqua non occaecat adipisicing dolore irure dolore deserunt. Qui aute ullamco incididunt quis exercitation dolor voluptate consectetur. Voluptate esse id adipisicing sunt cupidatat aliquip dolore ut qui.\r\n",
    "seasons": [
      {
        "name": "season 0: magna",
        "releaseDate": "2019-07-14",
        "numberOfEpisode": 20,
        "isCompleted": 0,
        "link": "https://anime47.com/phim/anime-vietsub-online-night-head-genesis-mediafire/tieng-viet/date-a-live-koga/m2962.html"
      },
      {
        "name": "season 1: voluptate",
        "releaseDate": "2018-11-10",
        "numberOfEpisode": 21,
        "isCompleted": 0,
        "link": "https://anime47.com/phim/anime-vietsub-online-night-head-genesis-mediafire/tieng-viet/date-a-live-koga/m2962.html"
      },
      {
        "name": "season 2: elit",
        "releaseDate": "2018-03-23",
        "numberOfEpisode": 17,
        "isCompleted": 1,
        "link": "https://anime47.com/phim/anime-vietsub-online-night-head-genesis-mediafire/tieng-viet/date-a-live-koga/m2962.html"
      }
    ],
    "compatibleScore": 23.63,
    "favouriteCount": 274,
    "rank": 568
  },
  {
    "id": 1009,
    "name": "Movie 9",
    "transName": "Phim 9",
    "producer": "RODEMCO.co",
    "pictureLink": "https://vuviphimmoi.com/wp-content/uploads/2017/11/Pico-cua-toi-Boku-No-Pico-Poster-185x278.jpg",
    "tags": [
      "proident",
      "consequat",
      "est",
      "qui",
      "elit",
      "mollit"
    ],
    "description": "Occaecat irure Lorem dolore Lorem qui commodo ipsum. Nulla tempor excepteur dolore magna minim deserunt proident ipsum elit laborum. Deserunt ea enim in mollit labore ex magna deserunt occaecat duis deserunt sunt aliquip. Pariatur et incididunt cupidatat esse do anim ad irure et enim. In excepteur dolor veniam veniam deserunt veniam laboris sit laborum aliquip incididunt cupidatat. Duis incididunt do commodo nisi id magna. Voluptate sit labore amet minim aute.\r\n",
    "seasons": [
      {
        "name": "season 0: mollit",
        "releaseDate": "2019-07-02",
        "numberOfEpisode": 19,
        "isCompleted": 1,
        "link": "https://anime47.com/phim/anime-vietsub-online-night-head-genesis-mediafire/tieng-viet/date-a-live-koga/m2962.html"
      },
      {
        "name": "season 1: do",
        "releaseDate": "2019-02-20",
        "numberOfEpisode": 22,
        "isCompleted": 1,
        "link": "https://anime47.com/phim/anime-vietsub-online-night-head-genesis-mediafire/tieng-viet/date-a-live-koga/m2962.html"
      },
      {
        "name": "season 2: enim",
        "releaseDate": "2019-08-16",
        "numberOfEpisode": 11,
        "isCompleted": 0,
        "link": "https://anime47.com/phim/anime-vietsub-online-night-head-genesis-mediafire/tieng-viet/date-a-live-koga/m2962.html"
      },
      {
        "name": "season 3: irure",
        "releaseDate": "2018-10-04",
        "numberOfEpisode": 17,
        "isCompleted": 1,
        "link": "https://anime47.com/phim/anime-vietsub-online-night-head-genesis-mediafire/tieng-viet/date-a-live-koga/m2962.html"
      },
      {
        "name": "season 4: proident",
        "releaseDate": "2019-07-06",
        "numberOfEpisode": 16,
        "isCompleted": 0,
        "link": "https://anime47.com/phim/anime-vietsub-online-night-head-genesis-mediafire/tieng-viet/date-a-live-koga/m2962.html"
      }
    ],
    "compatibleScore": 1.76,
    "favouriteCount": 705,
    "rank": 915
  },
  {
    "id": 1010,
    "name": "Movie 10",
    "transName": "Phim 10",
    "producer": "WAZZU.co",
    "pictureLink": "https://vuviphimmoi.com/wp-content/uploads/2017/11/Pico-cua-toi-Boku-No-Pico-Poster-185x278.jpg",
    "tags": [
      "irure",
      "mollit",
      "non",
      "consectetur",
      "exercitation",
      "cupidatat",
      "excepteur"
    ],
    "description": "Anim laborum nostrud duis qui voluptate irure irure duis. Reprehenderit fugiat velit amet et magna aliqua qui laboris exercitation ipsum consectetur. Eiusmod id aliqua veniam eiusmod eu ut sunt mollit elit do. Id sit laboris Lorem reprehenderit excepteur pariatur cupidatat pariatur qui in aliqua ad.\r\n",
    "seasons": [
      {
        "name": "season 0: duis",
        "releaseDate": "2020-02-01",
        "numberOfEpisode": 15,
        "isCompleted": 1,
        "link": "https://anime47.com/phim/anime-vietsub-online-night-head-genesis-mediafire/tieng-viet/date-a-live-koga/m2962.html"
      },
      {
        "name": "season 1: velit",
        "releaseDate": "2019-06-28",
        "numberOfEpisode": 20,
        "isCompleted": 0,
        "link": "https://anime47.com/phim/anime-vietsub-online-night-head-genesis-mediafire/tieng-viet/date-a-live-koga/m2962.html"
      },
      {
        "name": "season 2: non",
        "releaseDate": "2018-09-15",
        "numberOfEpisode": 17,
        "isCompleted": 1,
        "link": "https://anime47.com/phim/anime-vietsub-online-night-head-genesis-mediafire/tieng-viet/date-a-live-koga/m2962.html"
      }
    ],
    "compatibleScore": 42.33,
    "favouriteCount": 949,
    "rank": 994
  }
]